{
    "physics_objects": [
        {
            "template": "ground",
            "position": [
                1253.5,
                56.5
            ]
        },
        {
            "template": "ground",
            "position": [
                1507.5,
                56.5
            ]
        }
    ],
    "destructable_objects": [
        {
            "template": "crate",
            "position": [
                1253.5,
                119.5
            ]
        },
        {
            "template": "crate",
            "position": [
                1700.5,
                120.5
            ]
        },
        {
            "template": "beam",
            "position": [
                1252.5,
                149.5
            ]
        },
        {
            "template": "crate",
            "position": [
                1252.5,
                212.5
            ]
        },
        {
            "template": "crate",
            "position": [
                1702.5,
                213.5
            ]
        },
        {
            "template": "beam",
            "position": [
                1252.5,
                243.5
            ]
        },
        {
            "template": "crate",
            "position": [
                1253.5,
                307.5
            ]
        },
        {
            "template": "crate",
            "position": [
                1702.5,
                306.5
            ]
        },
        {
            "template": "beam",
            "position": [
                1253.5,
                338.5
            ]
        },
        {
            "template": "crate",
            "position": [
                1253.5,
                400.5
            ]
        },
        {
            "template": "crate",
            "position": [
                1701.5,
                401.5
            ]
        },
        {
            "template": "crate",
            "position": [
                1403.5,
                400.5
            ]
        },
        {
            "template": "crate",
            "position": [
                1550.5,
                401.5
            ]
        },
        {
            "template": "box",
            "position": [
                1561.5,
                118.5
            ]
        }
    ],
    "mobs": [
        {
            "template": "basic_alien",
            "position": [
                1342.5,
                373.5
            ]
        },
        {
            "template": "basic_alien",
            "position": [
                1637.5,
                372.5
            ]
        },
        {
            "template": "armored_alien",
            "position": [
                1486.0,
                93.5
            ]
        },
        {
            "template": "basic_alien",
            "position": [
                1489.5,
                273.5
            ]
        }
    ],
    "gravity": [
        0,
        -1500
    ],
    "player": {
        "template": "spaceship",
        "position": [
            190,
            202
        ]
    },
    "projectiles": [
        {
            "template": "basic_projectile"
        },
        {
            "template": "basic_projectile"
        },
        {
            "template": "basic_projectile"
        },
        {
            "template": "teleporting_projectile"
        },
        {
            "template": "large_projectile"
        },
        {
            "template": "accelerating_projectile"
        }
    ]
}